C515120340750	23.6	45.146	8.933	306.02	36.463	8.392	.759	176	.6	992.2	15:14:00	23-03-15	CLS
C515120341017	23.1	45.171	8.956	307.28	36.484	8.422	.76	176	.6	487.9	14:49:30	23-03-15	CLS
C515120340351	23.8	45.168	8.943	307.13	36.312	8.458	.76	176	.6	891.1	23:11:19	22-03-15	CLS
C515110346490	24.4	45.187	8.977	306.69	36.147	8.484	.756	176	.6	687.9	21:54:40	21-03-15	CLS
C515110344597	25.1	45.129	8.916	306.36	36.532	8.386	.761	176	.5	529.3	10:19:11	20-03-15	CLS
C515110341362	23.8	45.319	8.919	306.46	36.394	8.42	.758	176	.6	1066	07:38:08	18-03-15	CLS
C515110342753	23.5	45.191	8.908	307.42	36.401	8.445	.764	176	.6	615.4	21:24:00	17-03-15	CLS
C515110341830	24.5	45.23	8.912	305.73	36.84	8.298	.758	176	.6	856.2	05:57:03	17-03-15	CLS
C515100340330	24.5	45.209	8.906	307.09	36.751	8.355	.763	176	.6	1311.2	14:22:01	16-03-15	CLS
C515100340314	24.1	45.188	8.933	307.23	36.347	8.452	.761	176	.6	1018.6	10:02:53	16-03-15	CLS
C515110340602	24.9	45.108	8.965	306.28	36.171	8.467	.757	176	.6	693.7	19:36:37	15-03-15	CLS
C515100341583	22.2	45.206	8.935	307.11	36.611	8.388	.76	176	.6	283.3	10:28:05	15-03-15	CLS
C515100204832	23.3	45.169	9.01	307.09	36.42	8.431	.755	176	.6	145.6	10:01:09	13-03-15	CLS
C515100205591	25.3	45.287	8.984	308.27	36.574	8.428	.758	176	.6	293.4	03:17:40	13-03-15	CLS
C515100205361	25.3	45.259	8.969	308.28	36.615	8.419	.759	176	.6	416.5	02:53:54	13-03-15	CLS
C515100205642	24.5	45.342	8.967	308.65	36.606	8.431	.759	176	.6	494.8	02:52:15	13-03-15	CLS
C515100205578	24.9	45.392	8.933	309.08	36.559	8.454	.762	176	.6	1104.6	02:48:55	13-03-15	CLS
C515100205563	24.9	45.31	8.954	308.20	36.663	8.406	.76	176	.6	793	02:32:26	13-03-15	CLS
C515100205643	24.6	45.317	8.963	308.07	36.807	8.369	.758	176	.6	323.9	02:25:52	13-03-15	CLS
C515100205631	24.4	45.334	8.976	308.30	36.439	8.46	.758	176	.6	292.5	02:19:37	13-03-15	CLS
C515100205620	24.5	45.339	8.97	308.95	36.599	8.441	.76	176	.6	255.7	02:18:51	13-03-15	CLS
C515100205640	24.7	45.305	8.973	308.26	36.44	8.459	.758	176	.6	535.6	02:13:32	13-03-15	CLS
C515100205638	24.3	45.262	8.979	308.18	36.383	8.47	.758	176	.6	382.9	02:06:16	13-03-15	CLS
C515100205624	24.6	45.259	8.966	308.12	36.564	8.426	.759	176	.6	711.5	02:00:27	13-03-15	CLS
C515100205621	24.2	45.309	8.957	308.51	36.563	8.437	.76	176	.6	884.6	01:56:11	13-03-15	CLS
C515100204007	23.9	45.256	8.985	308.71	36.521	8.452	.759	176	.5	442.1	01:37:15	13-03-15	CLS
C515100205047	24.5	45.205	8.95	308.11	36.356	8.474	.762	176	.6	561.1	01:32:42	13-03-15	CLS
C515100204081	22.7	45.257	8.945	307.93	36.53	8.429	.761	176	.6	1210.3	10:06:14	12-03-15	CLS
C515090204240	23.7	45.074	8.897	303.78	36.575	8.305	.757	174	.6	300.1	20:55:06	09-03-15	CLS
